{
	"info": {
		"_postman_id": "4c3c1374-95db-4f1d-a4b7-611fa5cf01e0",
		"name": "PROD_EXT_Crane_Trans_APIs",
		"schema": "https://schema.getpostman.com/json/collection/v2.1.0/collection.json"
	},
	"item": [
		{
			"name": "1 PROD EG ShipmentInformation/In-Transit/CountByMode",
			"event": [
				{
					"listen": "prerequest",
					"script": {
						"id": "27d9cd86-eb90-4150-9979-1fb5927b6607",
						"exec": [
							""
						],
						"type": "text/javascript"
					}
				},
				{
					"listen": "test",
					"script": {
						"id": "d762c331-d520-451d-8876-660215113199",
						"exec": [
							"// TEST SCRIPTS ",
							"",
							"",
							"//TEST ONE",
							"// Test response time < 2500 ",
							"pm.test(\"Response time is less than 500ms\", function () {",
							"    pm.expect(pm.response.responseTime).to.be.below(500);",
							"});",
							"",
							"",
							"//TEST TWO",
							"// check for response status = 200",
							"var is200 = null; ",
							"pm.test(\"Assert that Status Code is 200\", function () {",
							"    is200 = pm.response.to.have.status(200);",
							"});",
							"",
							"",
							"//TEST THREE",
							"//check to see if this is an array response or a json object",
							"pm.test('my response is an Array', () => pm.expect(pm.response.json()).to.be.an('array').but.not.an('object'))",
							"",
							""
						],
						"type": "text/javascript"
					}
				}
			],
			"request": {
				"auth": {
					"type": "noauth"
				},
				"method": "GET",
				"header": [
					{
						"description": "prod Tyk Dev Key Token",
						"key": "Authorization",
						"type": "text",
						"value": "{{tokenProd}}"
					}
				],
				"url": {
					"raw": "https://api.craneww.com/transportation/v1/tracking/ShipmentInformation/In-Transit/CountByMode",
					"protocol": "https",
					"host": [
						"api",
						"craneww",
						"com"
					],
					"path": [
						"transportation",
						"v1",
						"tracking",
						"ShipmentInformation",
						"In-Transit",
						"CountByMode"
					]
				},
				"description": "-- Based on User Story & Task \r\nAPI-144 Create API to retrieve \"in-transit\" shipments count for a customer\r\nAPI-159 Integration Test\r\n\r\n-- This endpoint returns the details of the intransit shipments based on mapping to a Tyk Dev Token. \r\nThe Tyk Token is mapped to a GUID in the ClientIdentification DB.\r\nThe Tyk Token is passed as a variable {{tokenProd}} in Headers. \r\n\r\nhttps://api.craneww.com/transportation/v1/tracking/ShipmentInformation/In-Transit/CountByMode\r\nreturns an array"
			},
			"response": []
		},
		{
			"name": "2 PROD EG ShipmentInformation/In-Transit",
			"event": [
				{
					"listen": "prerequest",
					"script": {
						"id": "ce1ab177-f645-4868-a9b3-a5233299929b",
						"exec": [
							"//Unset the orders Page and Page Size\r",
							"pm.environment.unset(\"ordersPage\");\r",
							"pm.environment.unset(\"ordersPageSize\");\r",
							"\r",
							"\r",
							"//Reset with valid values\r",
							"pm.environment.set(\"ordersPage\", \"1\");\r",
							"pm.environment.set(\"ordersPageSize\", \"50\");\r",
							"\r",
							""
						],
						"type": "text/javascript"
					}
				},
				{
					"listen": "test",
					"script": {
						"id": "fe6c474f-cd5c-4eda-a5f0-5e7201ce28b6",
						"exec": [
							"// TEST SCRIPTS ",
							"",
							"",
							"// Can refactor this later to dynamically pull the Header being passed. ",
							"// Can refactor this later to dynamically pull the Header being passed. ",
							"console.log(\"Tyk Key is : \",pm.variables.get(\"tokenProd\"));",
							"console.log(\"PAGE IS : \",pm.variables.get(\"ordersPage\"));",
							"console.log(\"PAGESIZE IS :\",pm.variables.get(\"ordersPageSize\"));",
							"",
							"//TEST ONE",
							"// Test response time < 2500 ",
							"pm.test(\"Response time is less than 3500ms\", function () {",
							"",
							"    pm.expect(pm.response.responseTime).to.be.below(3500);",
							"",
							"});",
							"",
							"",
							"//TEST TWO",
							"// check for response status = 200",
							"var is200 = null; ",
							"pm.test(\"Assert that Status Code is 200\", function () {",
							"    ",
							"    is200 = pm.response.to.have.status(200);",
							"",
							"});",
							"",
							"",
							"//TEST THREE",
							"//check to see if this is an array response or a json object",
							"pm.test('my response is a JSON Object', () => pm.expect(pm.response.json()).to.be.an('object').but.not.an('array'))",
							"",
							"",
							"",
							"//TEST FOUR ",
							"//get some info coming back to see if it's valid",
							"var jsonData = pm.response.json();",
							"console.log(\"MY JSON RETURN DATA CONTAINS \", jsonData);",
							"",
							"//POSITIVE TEST ",
							"pm.test(\"hasMore is false for total < 50 \", function () {",
							"    console.log(\"hasMore: \",jsonData.hasMore);",
							"    if(jsonData.total < 50)",
							"    {",
							"        pm.expect(jsonData.hasMore).to.be.equal(false);",
							"    } ",
							"});",
							"",
							"pm.test(\"Total matches number of items returned \", function () {",
							"    console.log(\"total: \",jsonData.total);",
							"    console.log(\"my json items size is: \", jsonData.items.length); ",
							"",
							"    pm.expect(jsonData.total).to.be.equal(jsonData.items.length);",
							"});",
							""
						],
						"type": "text/javascript"
					}
				}
			],
			"request": {
				"auth": {
					"type": "noauth"
				},
				"method": "GET",
				"header": [
					{
						"description": "Prod Tyk Dev Key ",
						"key": "Authorization",
						"type": "text",
						"value": "{{tokenProd}}",
						"warning": "This is a duplicate header and will be overridden by the Authorization header generated by Postman."
					}
				],
				"url": {
					"raw": "https://api.craneww.com/transportation/v1/tracking/ShipmentInformation/In-Transit?page={{ordersPage}}&pageSize={{ordersPageSize}}",
					"protocol": "https",
					"host": [
						"api",
						"craneww",
						"com"
					],
					"path": [
						"transportation",
						"v1",
						"tracking",
						"ShipmentInformation",
						"In-Transit"
					],
					"query": [
						{
							"key": "page",
							"value": "{{ordersPage}}"
						},
						{
							"key": "pageSize",
							"value": "{{ordersPageSize}}"
						}
					]
				},
				"description": "-- Based on User Story & Task \r\nAPI-146 Create API to retrieve \"in-transit\" shipments details for a customer\r\nAPI-162 Integration Test\r\n\r\n-- This endpoint accepts a Tyk Dev Key Token passed as an environment variable called {{tokenProd}} and mapped to a GUID in the ClientIdentification DB. \r\nAlso accepts ordersPage and ordersPageSize variables for the optional values of page and page size. Default will be 1,50.\r\n\r\n// ENDPOINT\r\nhttps://api.craneww.com/transportation/v1/tracking/ShipmentInformation/In-Transit?page={{ordersPage}}&pageSize={{ordersPageSize}}\r\nreturns json object"
			},
			"response": []
		},
		{
			"name": "3 PROD EG ShipmentInformation/WithException/CountByMode",
			"event": [
				{
					"listen": "prerequest",
					"script": {
						"id": "27d9cd86-eb90-4150-9979-1fb5927b6607",
						"exec": [
							""
						],
						"type": "text/javascript"
					}
				},
				{
					"listen": "test",
					"script": {
						"id": "d762c331-d520-451d-8876-660215113199",
						"exec": [
							"// TEST SCRIPTS ",
							"",
							"",
							"//TEST ONE",
							"// Test response time < 2500 ",
							"pm.test(\"Response time is less than 500ms\", function () {",
							"    pm.expect(pm.response.responseTime).to.be.below(500);",
							"});",
							"",
							"",
							"//TEST TWO",
							"// check for response status = 200",
							"var is200 = null; ",
							"pm.test(\"Assert that Status Code is 200\", function () {",
							"    is200 = pm.response.to.have.status(200);",
							"});",
							"",
							"",
							"//TEST THREE",
							"//check to see if this is an array response or a json object",
							"pm.test('my response is an Array', () => pm.expect(pm.response.json()).to.be.an('array').but.not.an('object'));",
							""
						],
						"type": "text/javascript"
					}
				}
			],
			"request": {
				"auth": {
					"type": "noauth"
				},
				"method": "GET",
				"header": [
					{
						"key": "Authorization",
						"value": "{{tokenProd}}",
						"description": "Tyk Prod Dev Key",
						"type": "text"
					}
				],
				"url": {
					"raw": "https://api.craneww.com/transportation/v1/Tracking/ShipmentInformation/WithException/CountByMode",
					"protocol": "https",
					"host": [
						"api",
						"craneww",
						"com"
					],
					"path": [
						"transportation",
						"v1",
						"Tracking",
						"ShipmentInformation",
						"WithException",
						"CountByMode"
					]
				},
				"description": "-- Based on User Story & Task \r\nAPI-145 Create API to retrieve \"in-transit\" shipments with exceptions count for a customer\r\nAPI-XXX Integration Test\r\n\r\n\r\n-- This endpoint returns the count of the intransit shipments with exceptions based on mapping to a Tyk Dev Token. \r\nThe Tyk Token is mapped to a GUID in the ClientIdentification DB. The Tyk Token is passed as a variable {{tokenProd}} in Headers. \r\n\r\n//ENDPOINT\r\nhttps://api.craneww.com/transportation/v1/Tracking/ShipmentInformation/WithException/CountByMode\r\n//RETURNS - array"
			},
			"response": []
		},
		{
			"name": "4 PROD EG ShipmentInformation/WithException",
			"event": [
				{
					"listen": "prerequest",
					"script": {
						"id": "27d9cd86-eb90-4150-9979-1fb5927b6607",
						"exec": [
							"//Unset the orders Page and Page Size\r",
							"pm.environment.unset(\"ordersPage\");\r",
							"pm.environment.unset(\"ordersPageSize\");\r",
							"\r",
							"\r",
							"//Reset with valid values\r",
							"pm.environment.set(\"ordersPage\", \"1\");\r",
							"pm.environment.set(\"ordersPageSize\", \"50\");\r",
							""
						],
						"type": "text/javascript"
					}
				},
				{
					"listen": "test",
					"script": {
						"id": "d762c331-d520-451d-8876-660215113199",
						"exec": [
							"// TEST SCRIPTS ",
							"",
							"",
							"// Can refactor this later to dynamically pull the Header being passed. ",
							"console.log(\"Tyk Key is : \",pm.variables.get(\"tokenProd\"));",
							"console.log(\"PAGE IS : \",pm.variables.get(\"ordersPage\"));",
							"console.log(\"PAGESIZE IS :\",pm.variables.get(\"ordersPageSize\"));",
							"",
							"//TEST ONE",
							"// Test response time < 2500 ",
							"pm.test(\"Response time is less than 3500ms\", function () {",
							"",
							"    pm.expect(pm.response.responseTime).to.be.below(3500);",
							"",
							"});",
							"",
							"",
							"//TEST TWO",
							"// check for response status = 200",
							"var is200 = null; ",
							"pm.test(\"Assert that Status Code is 200\", function () {",
							"    ",
							"    is200 = pm.response.to.have.status(200);",
							"",
							"});",
							"",
							"",
							"//TEST THREE",
							"//check to see if this is an array response or a json object",
							"pm.test('my response is a JSON Object', () => pm.expect(pm.response.json()).to.be.an('object').but.not.an('array'))",
							"",
							"",
							"",
							"//TEST FOUR ",
							"//get some info coming back to see if it's valid",
							"var jsonData = pm.response.json();",
							"console.log(\"MY JSON RETURN DATA CONTAINS \", jsonData);",
							"",
							"//POSITIVE TEST ",
							"pm.test(\"hasMore is false for total < 50 \", function () {",
							"    console.log(\"hasMore: \",jsonData.hasMore);",
							"    if(jsonData.total < 50)",
							"    {",
							"        pm.expect(jsonData.hasMore).to.be.equal(false);",
							"    } ",
							"});",
							"",
							"pm.test(\"Total matches number of items returned \", function () {",
							"    console.log(\"total: \",jsonData.total);",
							"    console.log(\"my json items size is: \", jsonData.items.length); ",
							"",
							"    pm.expect(jsonData.total).to.be.equal(jsonData.items.length);",
							"});",
							"",
							""
						],
						"type": "text/javascript"
					}
				}
			],
			"request": {
				"auth": {
					"type": "noauth"
				},
				"method": "GET",
				"header": [
					{
						"key": "Authorization",
						"value": "{{tokenProd}}",
						"description": "Tyk Dev Key",
						"type": "text"
					}
				],
				"url": {
					"raw": "https://api.craneww.com/transportation/v1/Tracking/ShipmentInformation/WithException",
					"protocol": "https",
					"host": [
						"api",
						"craneww",
						"com"
					],
					"path": [
						"transportation",
						"v1",
						"Tracking",
						"ShipmentInformation",
						"WithException"
					]
				},
				"description": "-- Based on User Story & Task API-145 Create API to retrieve \"in-transit\" shipments with exceptions count for a customer\r\n\r\n-- This endpoint returns the details of intransit shipments with exceptions based on mapping to a Tyk Dev Token mapped to a GUID in the ClientIdentification DB and passed as an environment variable called {{tokenProd}}.  \r\nAccepts ordersPage and ordersPageSize variables for the optional values of page and page size. Default will be 1,50. \r\nNo other Headers No path Params\r\n\r\n//ENDPOINT \r\nhttps://api.craneww.com/transportation/v1/Tracking/ShipmentInformation/WithException\r\n//RETURNS json object"
			},
			"response": []
		},
		{
			"name": "5 PROD EG ReferenceType",
			"event": [
				{
					"listen": "test",
					"script": {
						"id": "49f46afb-40b7-4780-ba1c-de18d8682334",
						"exec": [
							"// TEST SCRIPTS ",
							"",
							"",
							"//TEST ONE",
							"// Test response time < 2500 ",
							"pm.test(\"Response time is less than 500ms\", function () {",
							"",
							"    pm.expect(pm.response.responseTime).to.be.below(500);",
							"",
							"});",
							"",
							"",
							"//TEST TWO",
							"// check for response status = 200",
							"var is200 = null; ",
							"pm.test(\"Assert that Status Code is 200\", function () {",
							"    ",
							"    is200 = pm.response.to.have.status(200);",
							"",
							"});",
							"",
							"",
							"//TEST THREE",
							"//check to see if this is an array response or a json object",
							"pm.test('my response is a JSON Object', () => pm.expect(pm.response.json()).to.be.an('object').but.not.an('array'))",
							"",
							"//TEST FOUR ",
							"//Check and validate data returned",
							"var jsonData = pm.response.json();",
							"console.log(\"Job Number : \",pm.variables.get(\"refNumberJob\"));",
							"console.log(\"Reference Type : \",jsonData.referenceType);",
							"",
							"pm.test(\"Successful POST request\", function () {",
							"    pm.expect(jsonData.referenceType).to.be.oneOf([\"Shipping Reference\",\"Job Reference\",\"Booking Reference\"]);",
							"}); ",
							"",
							""
						],
						"type": "text/javascript"
					}
				}
			],
			"request": {
				"auth": {
					"type": "noauth"
				},
				"method": "GET",
				"header": [
					{
						"key": "Authorization",
						"value": "{{tokenProd}}",
						"description": "Tyk Dev Key ",
						"type": "text"
					}
				],
				"url": {
					"raw": "https://api.craneww.com/transportation/v1/tracking/ReferenceType/:reference",
					"protocol": "https",
					"host": [
						"api",
						"craneww",
						"com"
					],
					"path": [
						"transportation",
						"v1",
						"tracking",
						"ReferenceType",
						":reference"
					],
					"variable": [
						{
							"key": "reference",
							"value": "{{refNumberJobProd}}"
						}
					]
				},
				"description": "// User API-66 Get shipments for a customer based on a reference number - Job number, booking number or airway bill number\n// API-166 Integration Test\n\nAccepts a Tyk Dev Token mapped to a GUID in the ClientIdentification DB. \nThe Tyk Token is passed as a variable {{tokenProd}} in Headers.\nThis endpoint passes a reference number (BOOKING NUMBER,JOB,AWB) and returns the type of the reference passed. \n\nhttps://transport.tst-dc01-api.craneww.com:12443/tracking/ReferenceType/AE00324917 will return \"Booking Reference\"\nhttps://transport.tst-dc01-api.craneww.com:12443/tracking/ReferenceType/HAE1806SIN000014 will return \"Job Reference\"\nhttps://transport.tst-dc01-api.craneww.com:12443/tracking/ReferenceType/MLCWGOAH10000044 will return \"Shipping Reference\"\n\n//ENDPOINT (with value passed) \nhttps://api.craneww.com/transportation/v1/tracking/ReferenceType/HSE1805BOM000032"
			},
			"response": []
		},
		{
			"name": "6 PROD EG ShipmentInformation",
			"event": [
				{
					"listen": "test",
					"script": {
						"id": "98d915dd-81a1-4b28-a4ad-5869f14f71f5",
						"exec": [
							"// TEST SCRIPTS ",
							"",
							"",
							"// Can refactor this later to dynamically pull the Header being passed. ",
							"console.log(\"Tyk Key is : \",pm.variables.get(\"tokenProd\"));",
							"",
							"//TEST ONE",
							"// Test response time < 2500 ",
							"pm.test(\"Response time is less than 1500ms\", function () {",
							"    pm.expect(pm.response.responseTime).to.be.below(1500);",
							"});",
							"",
							"",
							"//TEST TWO",
							"// check for response status = 200",
							"var is200 = null; ",
							"pm.test(\"Assert that Status Code is 200\", function () {",
							"    is200 = pm.response.to.have.status(200);",
							"});",
							"",
							"",
							"//TEST THREE",
							"//check to see if this is an array response or a json object",
							"pm.test('my response is a JSON Object', () => pm.expect(pm.response.json()).to.be.an('object').but.not.an('array'));",
							"",
							"",
							"//TEST FOUR ",
							"//get some info coming back to see if it's valid",
							"var jsonData = pm.response.json();",
							"console.log(\"MY JSON RETURN DATA CONTAINS: \", jsonData);",
							"console.log(\"MY JSON CUSTOMER NAME IS: \", jsonData.customerName); ",
							"",
							"//TEST - FIND SOME VALUE TO ASSERT",
							"//POSITIVE TEST ",
							"pm.test(\"Job Number matches Reference Number passed\", function () {",
							"    console.log(\"Job Number : \",jsonData.jobNumber);",
							"    var jNum = pm.variables.get(\"refNumberJobProd\");",
							"    pm.expect(jsonData.jobNumber).to.be.equal(jNum);",
							"});",
							"",
							""
						],
						"type": "text/javascript"
					}
				}
			],
			"request": {
				"auth": {
					"type": "noauth"
				},
				"method": "GET",
				"header": [
					{
						"warning": "This is a duplicate header and will be overridden by the Authorization header generated by Postman.",
						"key": "Authorization",
						"value": "{{tokenProd}}",
						"description": "Tyk Dev Key ",
						"type": "text"
					}
				],
				"url": {
					"raw": "https://api.craneww.com/transportation/v1/Tracking/ShipmentInformation/:reference?",
					"protocol": "https",
					"host": [
						"api",
						"craneww",
						"com"
					],
					"path": [
						"transportation",
						"v1",
						"Tracking",
						"ShipmentInformation",
						":reference"
					],
					"query": [
						{
							"key": "",
							"value": null,
							"disabled": true
						}
					],
					"variable": [
						{
							"key": "reference",
							"value": "{{refNumberJobProd}}",
							"description": "Valid Prod Job Number"
						}
					]
				},
				"description": "// User story API-66 Get shipment details for a customer based on a reference number - Job number, booking number or shipno\n// Integration Test API-160\n\n-- This endpoint accepts a Tyk Dev Key Token passed as an environment variable called {{tokenProd}} and mapped to a GUID in the ClientIdentification DB. \n\n// PRODUCTION\nhttps://api.craneww.com/transportation/v1/tracking/ShipmentInformation/:reference\nUSING TYK KEY 5a61f7cd26067f0001704cad583829e0b1694e1bb93be7f19c20c05a"
			},
			"response": []
		},
		{
			"name": "7 PROD EG ContainerInformation",
			"event": [
				{
					"listen": "test",
					"script": {
						"id": "5b33758e-97b6-47ca-9a9e-87c6120a6c6d",
						"exec": [
							"// TEST SCRIPTS ",
							"",
							"",
							"//TEST ONE",
							"// Test response time < 2500 ",
							"pm.test(\"Response time is less than 1500ms\", function () {",
							"    pm.expect(pm.response.responseTime).to.be.below(1500);",
							"});",
							"",
							"",
							"//TEST TWO",
							"// check for response status = 200",
							"var is200 = null; ",
							"pm.test(\"Assert that Status Code is 200\", function () {",
							"    is200 = pm.response.to.have.status(200);",
							"});",
							"",
							"",
							"//TEST THREE",
							"//check to see if this is an array response or a json object",
							"pm.test('my response is a JSON Object', () => pm.expect(pm.response.json()).to.be.an('object').but.not.an('array'))",
							"",
							"//TEST FOUR ",
							"//get some info coming back to see if it's valid",
							"var jsonData = pm.response.json();",
							"console.log(\"MY JSON RETURN DATA CONTAINS: \", jsonData);",
							"",
							"if(!jsonData.apiErrorMessage)",
							"{",
							"    pm.test(\"Total matches number of items returned \", function () {",
							"    console.log(\"total: \",jsonData.total);",
							"    console.log(\"MY JSON Number of Containers is: \", jsonData.items.length);",
							"    pm.expect(jsonData.total).to.be.equal(jsonData.items.length);",
							"});    ",
							"}else",
							"{",
							"    console.log(\"Error Message: \",jsonData.apiErrorMessage);",
							"    ",
							"}",
							"",
							"",
							"",
							"",
							"",
							"",
							""
						],
						"type": "text/javascript"
					}
				}
			],
			"request": {
				"auth": {
					"type": "noauth"
				},
				"method": "GET",
				"header": [
					{
						"description": "Bearer Token",
						"key": "Authorization",
						"type": "text",
						"value": "{{tokenProd}}"
					}
				],
				"url": {
					"raw": "https://api.craneww.com/transportation/v1/Tracking/ContainerInformation/:reference",
					"protocol": "https",
					"host": [
						"api",
						"craneww",
						"com"
					],
					"path": [
						"transportation",
						"v1",
						"Tracking",
						"ContainerInformation",
						":reference"
					],
					"variable": [
						{
							"key": "reference",
							"value": "IPXU3762397"
						}
					]
				},
				"description": "-- Endpoint returns Container information based on a Container number.\n\nContainer number is passed as a path variable under Params along with a Tyk Dev Key Token passed as a Header variable {{tokenProd}}. \n\n//ENDPOINT https://api.craneww.com/transportation/v1/Tracking/ContainerInformation/:reference\n//RETURNS  json object"
			},
			"response": [
				{
					"name": "7 TEST IG ShipmentInformation/:reference JOB (1of2)",
					"originalRequest": {
						"method": "GET",
						"header": [
							{
								"key": "ApiClientId",
								"value": "{{clientKeyAMS}}",
								"description": "Cummins Key ",
								"type": "text"
							},
							{
								"key": "ApiClientId",
								"value": "{{clientKey3}}",
								"description": "J&J Key",
								"type": "text",
								"disabled": true
							}
						],
						"url": {
							"raw": "https://transportation.tst-dc01-api.craneww.com:12443/tracking/ShipmentInformation/:reference",
							"protocol": "https",
							"host": [
								"transportation",
								"tst-dc01-api",
								"craneww",
								"com"
							],
							"port": "12443",
							"path": [
								"tracking",
								"ShipmentInformation",
								":reference"
							],
							"variable": [
								{
									"key": "reference",
									"value": "HLAX10002352"
								}
							]
						}
					},
					"status": "OK",
					"code": 200,
					"_postman_previewlanguage": "json",
					"header": [
						{
							"key": "Transfer-Encoding",
							"value": "chunked"
						},
						{
							"key": "Content-Type",
							"value": "application/json; charset=utf-8"
						},
						{
							"key": "Server",
							"value": "Microsoft-IIS/10.0"
						},
						{
							"key": "Strict-Transport-Security",
							"value": "max-age=2592000"
						},
						{
							"key": "Date",
							"value": "Wed, 10 Jul 2019 18:27:20 GMT"
						}
					],
					"cookie": [],
					"body": "{\n    \"customerName\": \"Cummins Power Generation Limited (Daventry)\",\n    \"shipmentNumber\": \"HLAX10002352\",\n    \"bookingNumber\": null,\n    \"jobNumber\": \"DSE1907CKG000001\",\n    \"serviceType\": \"DTD\",\n    \"referenceNumbers\": [\n        {\n            \"referenceType\": \"CUST\",\n            \"referenceNumber\": \"3648602-10\"\n        }\n    ],\n    \"grossWeight\": \"16480\",\n    \"chargeableWeight\": null,\n    \"grossWeight_Ut\": \"KGS\",\n    \"chargeableWeight_Ut\": \"CBM\",\n    \"origin\": \"CHONGQING\",\n    \"destination\": \"FELIXSTOWE\",\n    \"stationCode\": \"CKG\",\n    \"dueDate\": \"2019-07-31T00:00:00Z\",\n    \"serviceLevel\": \"ISTD\",\n    \"shipmentMilestones\": [],\n    \"shipperName\": \"CHONGQING CUMMINS ENGINE COMPANY LIMITED\",\n    \"consigneeName\": \"Cummins Ltd-Daventry\",\n    \"marksNumbers\": \"N/M\",\n    \"totalPieces\": \"10\",\n    \"shipperAddress1\": \"NO. 100 ZHUANG ZHI ROAD, SHAPINGBA DISTRICT,\",\n    \"shipperAddress2\": \"CHONGQING, CHINA\",\n    \"shipperCity\": \"CHONGQING\",\n    \"shipperState\": null,\n    \"shipperPostalCode\": \"400031\",\n    \"shipperCountry\": \"CN\",\n    \"consigneeAddress1\": \"Cummins Limited\",\n    \"consigneeAddress2\": \"Daventry Engine Plant Royal Oak Way South,\",\n    \"consigneeCity\": \"DAVENTRY\",\n    \"consigneeState\": null,\n    \"consigneePostalCode\": \"NN11 8NU\",\n    \"consigneeCountry\": \"GB\",\n    \"originCode\": \"CQI\",\n    \"destinationCode\": \"FXT\",\n    \"totalPiecesUnitOfMeasure\": \"PK\",\n    \"methodOfTransport\": \"OCEAN\"\n}"
				}
			]
		}
	],
	"event": [
		{
			"listen": "prerequest",
			"script": {
				"id": "2b8546fe-7e4b-410e-b7de-dafce5cf63a8",
				"type": "text/javascript",
				"exec": [
					""
				]
			}
		},
		{
			"listen": "test",
			"script": {
				"id": "e3123bce-a4d7-4f24-b7d9-39b9bad2d810",
				"type": "text/javascript",
				"exec": [
					""
				]
			}
		}
	]
}